%YAML 1.1
%TAG !u! tag:unity3d.com,2011:
--- !u!221 &22100000
AnimatorOverrideController:
  m_ObjectHideFlags: 0
  m_CorrespondingSourceObject: {fileID: 0}
  m_PrefabInstance: {fileID: 0}
  m_PrefabAsset: {fileID: 0}
  m_Name: AnimatorOverride_TyrShield
  m_Controller: {fileID: 9100000, guid: 651849973061b3a4da1a9ad81e0be307, type: 2}
  m_Clips:
  - m_OriginalClip: {fileID: 7400000, guid: 268260f4d83dad74daa3aa5d3a67e842, type: 2}
    m_OverrideClip: {fileID: 7400000, guid: 5b3595cb9a772ed4a84ade671b7ac8e3, type: 2}
  - m_OriginalClip: {fileID: 7400000, guid: b9be943034b8eec488e42814c9832e89, type: 2}
    m_OverrideClip: {fileID: 7400000, guid: 4194d774d4b2cb64091668d890d6091b, type: 2}
  - m_OriginalClip: {fileID: 7400000, guid: c0064a166b98a1d4b8336135cdb093d8, type: 2}
    m_OverrideClip: {fileID: 7400000, guid: 4678a0b027907bc41801218facfe9a41, type: 2}
