%YAML 1.1
%TAG !u! tag:unity3d.com,2011:
--- !u!74 &7400000
AnimationClip:
  m_ObjectHideFlags: 0
  m_CorrespondingSourceObject: {fileID: 0}
  m_PrefabInstance: {fileID: 0}
  m_PrefabAsset: {fileID: 0}
  m_Name: Animation_ExplosiveFruit_AbyssMelon_Bound_1
  serializedVersion: 6
  m_Legacy: 0
  m_Compressed: 0
  m_UseHighQualityCurve: 1
  m_RotationCurves: []
  m_CompressedRotationCurves: []
  m_EulerCurves: []
  m_PositionCurves: []
  m_ScaleCurves: []
  m_FloatCurves:
  - curve:
      serializedVersion: 2
      m_Curve:
      - serializedVersion: 3
        time: 0
        value: 1
        inSlope: 0
        outSlope: 0
        tangentMode: 136
        weightedMode: 0
        inWeight: 0
        outWeight: 0
      m_PreInfinity: 2
      m_PostInfinity: 2
      m_RotationOrder: 4
    attribute: material._isActive
    path: Main Transform/Main Renderers/Main Renderer_0
    classID: 212
    script: {fileID: 0}
  m_PPtrCurves:
  - curve:
    - time: 0
      value: {fileID: -9139325356026379026, guid: 61c9e54775fc12d43bbeb870e15c6417,
        type: 3}
    - time: 0.1
      value: {fileID: -455910379949359372, guid: 61c9e54775fc12d43bbeb870e15c6417,
        type: 3}
    - time: 0.2
      value: {fileID: -9182038679729178965, guid: 61c9e54775fc12d43bbeb870e15c6417,
        type: 3}
    - time: 0.3
      value: {fileID: 9047387003457493179, guid: 61c9e54775fc12d43bbeb870e15c6417,
        type: 3}
    attribute: m_Sprite
    path: Main Transform/Main Renderers/Main Renderer_0
    classID: 212
    script: {fileID: 0}
  m_SampleRate: 10
  m_WrapMode: 0
  m_Bounds:
    m_Center: {x: 0, y: 0, z: 0}
    m_Extent: {x: 0, y: 0, z: 0}
  m_ClipBindingConstant:
    genericBindings:
    - serializedVersion: 2
      path: 2075699959
      attribute: 0
      script: {fileID: 0}
      typeID: 212
      customType: 23
      isPPtrCurve: 1
    - serializedVersion: 2
      path: 2075699959
      attribute: 2226566072
      script: {fileID: 0}
      typeID: 212
      customType: 22
      isPPtrCurve: 0
    pptrCurveMapping:
    - {fileID: -9139325356026379026, guid: 61c9e54775fc12d43bbeb870e15c6417, type: 3}
    - {fileID: -455910379949359372, guid: 61c9e54775fc12d43bbeb870e15c6417, type: 3}
    - {fileID: -9182038679729178965, guid: 61c9e54775fc12d43bbeb870e15c6417, type: 3}
    - {fileID: 9047387003457493179, guid: 61c9e54775fc12d43bbeb870e15c6417, type: 3}
  m_AnimationClipSettings:
    serializedVersion: 2
    m_AdditiveReferencePoseClip: {fileID: 0}
    m_AdditiveReferencePoseTime: 0
    m_StartTime: 0
    m_StopTime: 0.4
    m_OrientationOffsetY: 0
    m_Level: 0
    m_CycleOffset: 0
    m_HasAdditiveReferencePose: 0
    m_LoopTime: 1
    m_LoopBlend: 0
    m_LoopBlendOrientation: 0
    m_LoopBlendPositionY: 0
    m_LoopBlendPositionXZ: 0
    m_KeepOriginalOrientation: 0
    m_KeepOriginalPositionY: 1
    m_KeepOriginalPositionXZ: 0
    m_HeightFromFeet: 0
    m_Mirror: 0
  m_EditorCurves:
  - curve:
      serializedVersion: 2
      m_Curve:
      - serializedVersion: 3
        time: 0
        value: 1
        inSlope: 0
        outSlope: 0
        tangentMode: 136
        weightedMode: 0
        inWeight: 0
        outWeight: 0
      m_PreInfinity: 2
      m_PostInfinity: 2
      m_RotationOrder: 4
    attribute: material._isActive
    path: Main Transform/Main Renderers/Main Renderer_0
    classID: 212
    script: {fileID: 0}
  m_EulerEditorCurves: []
  m_HasGenericRootTransform: 0
  m_HasMotionFloatCurves: 0
  m_Events: []
