%YAML 1.1
%TAG !u! tag:unity3d.com,2011:
--- !u!74 &7400000
AnimationClip:
  m_ObjectHideFlags: 0
  m_CorrespondingSourceObject: {fileID: 0}
  m_PrefabInstance: {fileID: 0}
  m_PrefabAsset: {fileID: 0}
  m_Name: Animation_Monster_EnhancerMage_Cast_GlobalEnhance
  serializedVersion: 6
  m_Legacy: 0
  m_Compressed: 0
  m_UseHighQualityCurve: 1
  m_RotationCurves: []
  m_CompressedRotationCurves: []
  m_EulerCurves: []
  m_PositionCurves: []
  m_ScaleCurves: []
  m_FloatCurves: []
  m_PPtrCurves:
  - curve:
    - time: 0
      value: {fileID: 7562703539257632348, guid: 6423baef05b1f1a4381703491ef8d03f,
        type: 3}
    - time: 0.1
      value: {fileID: -7248375881746865879, guid: 6423baef05b1f1a4381703491ef8d03f,
        type: 3}
    - time: 0.2
      value: {fileID: -555558868932018284, guid: 6423baef05b1f1a4381703491ef8d03f,
        type: 3}
    - time: 0.3
      value: {fileID: 4571973276723396095, guid: 6423baef05b1f1a4381703491ef8d03f,
        type: 3}
    - time: 0.4
      value: {fileID: 1661366456639474303, guid: 6423baef05b1f1a4381703491ef8d03f,
        type: 3}
    - time: 0.5
      value: {fileID: 3594670401621066497, guid: 6423baef05b1f1a4381703491ef8d03f,
        type: 3}
    - time: 0.6
      value: {fileID: -8335808823672341762, guid: 6423baef05b1f1a4381703491ef8d03f,
        type: 3}
    - time: 0.7
      value: {fileID: 7562703539257632348, guid: 6423baef05b1f1a4381703491ef8d03f,
        type: 3}
    - time: 0.8
      value: {fileID: -7248375881746865879, guid: 6423baef05b1f1a4381703491ef8d03f,
        type: 3}
    - time: 0.9
      value: {fileID: -555558868932018284, guid: 6423baef05b1f1a4381703491ef8d03f,
        type: 3}
    - time: 1
      value: {fileID: 4571973276723396095, guid: 6423baef05b1f1a4381703491ef8d03f,
        type: 3}
    - time: 1.1
      value: {fileID: 1661366456639474303, guid: 6423baef05b1f1a4381703491ef8d03f,
        type: 3}
    - time: 1.2
      value: {fileID: 3594670401621066497, guid: 6423baef05b1f1a4381703491ef8d03f,
        type: 3}
    - time: 1.3
      value: {fileID: -8335808823672341762, guid: 6423baef05b1f1a4381703491ef8d03f,
        type: 3}
    - time: 1.4
      value: {fileID: 8550166423407385378, guid: ce8c3d99186498643b33d328295d0bc5,
        type: 3}
    - time: 1.5
      value: {fileID: 4197194488176012555, guid: ce8c3d99186498643b33d328295d0bc5,
        type: 3}
    - time: 1.6
      value: {fileID: 4725156197136877190, guid: ce8c3d99186498643b33d328295d0bc5,
        type: 3}
    - time: 1.7
      value: {fileID: 4413762523500975635, guid: ce8c3d99186498643b33d328295d0bc5,
        type: 3}
    - time: 1.8
      value: {fileID: -6660956766129012159, guid: ce8c3d99186498643b33d328295d0bc5,
        type: 3}
    - time: 1.9
      value: {fileID: -7716000597731888959, guid: ce8c3d99186498643b33d328295d0bc5,
        type: 3}
    - time: 2
      value: {fileID: -249049947418066467, guid: ce8c3d99186498643b33d328295d0bc5,
        type: 3}
    attribute: m_Sprite
    path: Main Transform/Main Renderers/Main Renderer_0
    classID: 212
    script: {fileID: 0}
  m_SampleRate: 10
  m_WrapMode: 0
  m_Bounds:
    m_Center: {x: 0, y: 0, z: 0}
    m_Extent: {x: 0, y: 0, z: 0}
  m_ClipBindingConstant:
    genericBindings:
    - serializedVersion: 2
      path: 2075699959
      attribute: 0
      script: {fileID: 0}
      typeID: 212
      customType: 23
      isPPtrCurve: 1
    pptrCurveMapping:
    - {fileID: 7562703539257632348, guid: 6423baef05b1f1a4381703491ef8d03f, type: 3}
    - {fileID: -7248375881746865879, guid: 6423baef05b1f1a4381703491ef8d03f, type: 3}
    - {fileID: -555558868932018284, guid: 6423baef05b1f1a4381703491ef8d03f, type: 3}
    - {fileID: 4571973276723396095, guid: 6423baef05b1f1a4381703491ef8d03f, type: 3}
    - {fileID: 1661366456639474303, guid: 6423baef05b1f1a4381703491ef8d03f, type: 3}
    - {fileID: 3594670401621066497, guid: 6423baef05b1f1a4381703491ef8d03f, type: 3}
    - {fileID: -8335808823672341762, guid: 6423baef05b1f1a4381703491ef8d03f, type: 3}
    - {fileID: 7562703539257632348, guid: 6423baef05b1f1a4381703491ef8d03f, type: 3}
    - {fileID: -7248375881746865879, guid: 6423baef05b1f1a4381703491ef8d03f, type: 3}
    - {fileID: -555558868932018284, guid: 6423baef05b1f1a4381703491ef8d03f, type: 3}
    - {fileID: 4571973276723396095, guid: 6423baef05b1f1a4381703491ef8d03f, type: 3}
    - {fileID: 1661366456639474303, guid: 6423baef05b1f1a4381703491ef8d03f, type: 3}
    - {fileID: 3594670401621066497, guid: 6423baef05b1f1a4381703491ef8d03f, type: 3}
    - {fileID: -8335808823672341762, guid: 6423baef05b1f1a4381703491ef8d03f, type: 3}
    - {fileID: 8550166423407385378, guid: ce8c3d99186498643b33d328295d0bc5, type: 3}
    - {fileID: 4197194488176012555, guid: ce8c3d99186498643b33d328295d0bc5, type: 3}
    - {fileID: 4725156197136877190, guid: ce8c3d99186498643b33d328295d0bc5, type: 3}
    - {fileID: 4413762523500975635, guid: ce8c3d99186498643b33d328295d0bc5, type: 3}
    - {fileID: -6660956766129012159, guid: ce8c3d99186498643b33d328295d0bc5, type: 3}
    - {fileID: -7716000597731888959, guid: ce8c3d99186498643b33d328295d0bc5, type: 3}
    - {fileID: -249049947418066467, guid: ce8c3d99186498643b33d328295d0bc5, type: 3}
  m_AnimationClipSettings:
    serializedVersion: 2
    m_AdditiveReferencePoseClip: {fileID: 0}
    m_AdditiveReferencePoseTime: 0
    m_StartTime: 0
    m_StopTime: 2.1
    m_OrientationOffsetY: 0
    m_Level: 0
    m_CycleOffset: 0
    m_HasAdditiveReferencePose: 0
    m_LoopTime: 0
    m_LoopBlend: 0
    m_LoopBlendOrientation: 0
    m_LoopBlendPositionY: 0
    m_LoopBlendPositionXZ: 0
    m_KeepOriginalOrientation: 0
    m_KeepOriginalPositionY: 1
    m_KeepOriginalPositionXZ: 0
    m_HeightFromFeet: 0
    m_Mirror: 0
  m_EditorCurves: []
  m_EulerEditorCurves: []
  m_HasGenericRootTransform: 0
  m_HasMotionFloatCurves: 0
  m_Events:
  - time: 2.1
    functionName: EffectOfGlobalEnhance_Animation
    data: 
    objectReferenceParameter: {fileID: 0}
    floatParameter: 0
    intParameter: 0
    messageOptions: 0
  - time: 2.1
    functionName: EndGlobalCast_Animation
    data: 
    objectReferenceParameter: {fileID: 0}
    floatParameter: 0
    intParameter: 0
    messageOptions: 0
