%YAML 1.1
%TAG !u! tag:unity3d.com,2011:
--- !u!1 &2477449185467009158
GameObject:
  m_ObjectHideFlags: 0
  m_CorrespondingSourceObject: {fileID: 0}
  m_PrefabInstance: {fileID: 0}
  m_PrefabAsset: {fileID: 0}
  serializedVersion: 6
  m_Component:
  - component: {fileID: 2477449185467009157}
  - component: {fileID: 2477449185467009156}
  m_Layer: 0
  m_Name: Prefab_ProductPool
  m_TagString: Untagged
  m_Icon: {fileID: 0}
  m_NavMeshLayer: 0
  m_StaticEditorFlags: 0
  m_IsActive: 1
--- !u!4 &2477449185467009157
Transform:
  m_ObjectHideFlags: 0
  m_CorrespondingSourceObject: {fileID: 0}
  m_PrefabInstance: {fileID: 0}
  m_PrefabAsset: {fileID: 0}
  m_GameObject: {fileID: 2477449185467009158}
  m_LocalRotation: {x: 0, y: 0, z: 0, w: 1}
  m_LocalPosition: {x: 0, y: 0, z: 0}
  m_LocalScale: {x: 1, y: 1, z: 1}
  m_Children: []
  m_Father: {fileID: 0}
  m_RootOrder: 0
  m_LocalEulerAnglesHint: {x: 0, y: 0, z: 0}
--- !u!114 &2477449185467009156
MonoBehaviour:
  m_ObjectHideFlags: 0
  m_CorrespondingSourceObject: {fileID: 0}
  m_PrefabInstance: {fileID: 0}
  m_PrefabAsset: {fileID: 0}
  m_GameObject: {fileID: 2477449185467009158}
  m_Enabled: 1
  m_EditorHideFlags: 0
  m_Script: {fileID: 11500000, guid: a9b5492d8ddb10d4d916ccdeac6454a8, type: 3}
  m_Name: 
  m_EditorClassIdentifier: 
  mPrefabs:
  - {fileID: 8142716929172974546, guid: 21bf4c3b50f983e4697e1726c4fb92b3, type: 3}
  - {fileID: 3191279258028054469, guid: 1544ee4c49537dd41a9f8b660903cf11, type: 3}
  - {fileID: 5506228697971768824, guid: c0b803e8113ed43488c8d507f92d5fa4, type: 3}
  - {fileID: 5011186124783915875, guid: d4efc1fa41543fc47b792c088478323b, type: 3}
  - {fileID: 6989895097862689539, guid: 8f95fdcbe5887d0478319eb8357d0d2e, type: 3}
  - {fileID: 5246856558468314698, guid: 42433dc48025bfd4e93e0069d4bae72d, type: 3}
  - {fileID: 1155759847279073317, guid: 5da1fe01f896d6540b8c967ef02a1889, type: 3}
  - {fileID: 865131802707609538, guid: 7946aa4d7574c144a9ef13ed5249dbfc, type: 3}
  - {fileID: 619595769478268144, guid: b11be2421790af5489cc934c512fce5f, type: 3}
  - {fileID: 5900763222902219757, guid: f16592e0e70ca8e4e8cc0c2b8ae5f581, type: 3}
  mCountsOfObjects: 0a0000000a0000000a0000000a0000000a0000000a0000000a0000000a0000000a0000000a000000
