%YAML 1.1
%TAG !u! tag:unity3d.com,2011:
--- !u!114 &11400000
MonoBehaviour:
  m_ObjectHideFlags: 0
  m_CorrespondingSourceObject: {fileID: 0}
  m_PrefabInstance: {fileID: 0}
  m_PrefabAsset: {fileID: 0}
  m_GameObject: {fileID: 0}
  m_Enabled: 1
  m_EditorHideFlags: 0
  m_Script: {fileID: 11500000, guid: 2b1c6c908b4188442838fd93f0f6a339, type: 3}
  m_Name: Asset_PassiveItem_ExorcismAmulet
  m_EditorClassIdentifier: 
  Icon: {fileID: -3124279320785533817, guid: e0a9eb10e742361468c81dd5f9c130d7, type: 3}
  NameTag: PassiveItem_ExorcismAmulet_Name
  OptionTag: PassiveItem_ExorcismAmulet_Option
  MaxLevel: 3
  MaxProficiency: 3
  DemonSoulsAdditionPossibilities:
  - 0.25
  - 0.5
  - 1
