%YAML 1.1
%TAG !u! tag:unity3d.com,2011:
--- !u!221 &22100000
AnimatorOverrideController:
  m_ObjectHideFlags: 0
  m_CorrespondingSourceObject: {fileID: 0}
  m_PrefabInstance: {fileID: 0}
  m_PrefabAsset: {fileID: 0}
  m_Name: AnimatorOverride_ActiveSkill_HeatBeam
  m_Controller: {fileID: 9100000, guid: cdd75610fffb36e4c9cbbb08a9b2d315, type: 2}
  m_Clips:
  - m_OriginalClip: {fileID: 7400000, guid: f081406743cd8b04385864e7328e0b0d, type: 2}
    m_OverrideClip: {fileID: 7400000, guid: 0f79824057667d448a897a7e3e97e921, type: 2}
  - m_OriginalClip: {fileID: 7400000, guid: 8145c74262284d44eb9083e9d92ce9d6, type: 2}
    m_OverrideClip: {fileID: 7400000, guid: c4a14fe4afdfe4e43ab0e9af1cfd55ca, type: 2}
  - m_OriginalClip: {fileID: 7400000, guid: 45592385a874df84289da867efea764e, type: 2}
    m_OverrideClip: {fileID: 7400000, guid: ba66cf260f49ded4298a4e47cb4e55bb, type: 2}
