%YAML 1.1
%TAG !u! tag:unity3d.com,2011:
--- !u!74 &7400000
AnimationClip:
  m_ObjectHideFlags: 0
  m_CorrespondingSourceObject: {fileID: 0}
  m_PrefabInstance: {fileID: 0}
  m_PrefabAsset: {fileID: 0}
  m_Name: Animation_Fairy_Attack_Santa
  serializedVersion: 6
  m_Legacy: 0
  m_Compressed: 0
  m_UseHighQualityCurve: 1
  m_RotationCurves: []
  m_CompressedRotationCurves: []
  m_EulerCurves: []
  m_PositionCurves: []
  m_ScaleCurves: []
  m_FloatCurves:
  - curve:
      serializedVersion: 2
      m_Curve:
      - serializedVersion: 3
        time: 0
        value: 0
        inSlope: Infinity
        outSlope: Infinity
        tangentMode: 103
        weightedMode: 0
        inWeight: 0
        outWeight: 0
      m_PreInfinity: 2
      m_PostInfinity: 2
      m_RotationOrder: 4
    attribute: m_IsActive
    path: Main Transform/Main Renderers/Renderer_01
    classID: 1
    script: {fileID: 0}
  m_PPtrCurves:
  - curve:
    - time: 0
      value: {fileID: -618463912926685071, guid: a26dac9a2364d4a439389c70d69cd0d2,
        type: 3}
    - time: 0.1
      value: {fileID: 8886384739286823154, guid: a26dac9a2364d4a439389c70d69cd0d2,
        type: 3}
    - time: 0.2
      value: {fileID: -510304105493242156, guid: a26dac9a2364d4a439389c70d69cd0d2,
        type: 3}
    - time: 0.3
      value: {fileID: 8552571082586564399, guid: a26dac9a2364d4a439389c70d69cd0d2,
        type: 3}
    - time: 0.4
      value: {fileID: 2797153775623087840, guid: a26dac9a2364d4a439389c70d69cd0d2,
        type: 3}
    - time: 0.5
      value: {fileID: 3338406892755362548, guid: a26dac9a2364d4a439389c70d69cd0d2,
        type: 3}
    - time: 0.6
      value: {fileID: 3338406892755362548, guid: a26dac9a2364d4a439389c70d69cd0d2,
        type: 3}
    attribute: m_Sprite
    path: Main Transform/Main Renderers/Renderer_00
    classID: 212
    script: {fileID: 0}
  m_SampleRate: 10
  m_WrapMode: 0
  m_Bounds:
    m_Center: {x: 0, y: 0, z: 0}
    m_Extent: {x: 0, y: 0, z: 0}
  m_ClipBindingConstant:
    genericBindings:
    - serializedVersion: 2
      path: 2588927486
      attribute: 2086281974
      script: {fileID: 0}
      typeID: 1
      customType: 0
      isPPtrCurve: 0
    - serializedVersion: 2
      path: 3980973416
      attribute: 0
      script: {fileID: 0}
      typeID: 212
      customType: 23
      isPPtrCurve: 1
    pptrCurveMapping:
    - {fileID: -618463912926685071, guid: a26dac9a2364d4a439389c70d69cd0d2, type: 3}
    - {fileID: 8886384739286823154, guid: a26dac9a2364d4a439389c70d69cd0d2, type: 3}
    - {fileID: -510304105493242156, guid: a26dac9a2364d4a439389c70d69cd0d2, type: 3}
    - {fileID: 8552571082586564399, guid: a26dac9a2364d4a439389c70d69cd0d2, type: 3}
    - {fileID: 2797153775623087840, guid: a26dac9a2364d4a439389c70d69cd0d2, type: 3}
    - {fileID: 3338406892755362548, guid: a26dac9a2364d4a439389c70d69cd0d2, type: 3}
    - {fileID: 3338406892755362548, guid: a26dac9a2364d4a439389c70d69cd0d2, type: 3}
  m_AnimationClipSettings:
    serializedVersion: 2
    m_AdditiveReferencePoseClip: {fileID: 0}
    m_AdditiveReferencePoseTime: 0
    m_StartTime: 0
    m_StopTime: 0.70000005
    m_OrientationOffsetY: 0
    m_Level: 0
    m_CycleOffset: 0
    m_HasAdditiveReferencePose: 0
    m_LoopTime: 1
    m_LoopBlend: 0
    m_LoopBlendOrientation: 0
    m_LoopBlendPositionY: 0
    m_LoopBlendPositionXZ: 0
    m_KeepOriginalOrientation: 0
    m_KeepOriginalPositionY: 1
    m_KeepOriginalPositionXZ: 0
    m_HeightFromFeet: 0
    m_Mirror: 0
  m_EditorCurves:
  - curve:
      serializedVersion: 2
      m_Curve:
      - serializedVersion: 3
        time: 0
        value: 0
        inSlope: Infinity
        outSlope: Infinity
        tangentMode: 103
        weightedMode: 0
        inWeight: 0
        outWeight: 0
      m_PreInfinity: 2
      m_PostInfinity: 2
      m_RotationOrder: 4
    attribute: m_IsActive
    path: Main Transform/Main Renderers/Renderer_01
    classID: 1
    script: {fileID: 0}
  m_EulerEditorCurves: []
  m_HasGenericRootTransform: 0
  m_HasMotionFloatCurves: 0
  m_Events:
  - time: 0
    functionName: Attack
    data: 
    objectReferenceParameter: {fileID: 0}
    floatParameter: 0
    intParameter: 0
    messageOptions: 0
  - time: 0.6
    functionName: set_State
    data: 
    objectReferenceParameter: {fileID: 0}
    floatParameter: 0
    intParameter: 0
    messageOptions: 0
