%YAML 1.1
%TAG !u! tag:unity3d.com,2011:
--- !u!74 &7400000
AnimationClip:
  m_ObjectHideFlags: 0
  m_CorrespondingSourceObject: {fileID: 0}
  m_PrefabInstance: {fileID: 0}
  m_PrefabAsset: {fileID: 0}
  m_Name: Animation_Effect_FairyBeam_Activate
  serializedVersion: 6
  m_Legacy: 0
  m_Compressed: 0
  m_UseHighQualityCurve: 1
  m_RotationCurves: []
  m_CompressedRotationCurves: []
  m_EulerCurves: []
  m_PositionCurves: []
  m_ScaleCurves: []
  m_FloatCurves: []
  m_PPtrCurves:
  - curve:
    - time: 0
      value: {fileID: -442413852900612751, guid: 3b96dfdcb10cd764cafada0fd002e17c,
        type: 3}
    - time: 0.1
      value: {fileID: -4504724859831576421, guid: 3b96dfdcb10cd764cafada0fd002e17c,
        type: 3}
    - time: 0.2
      value: {fileID: -1647702058509390200, guid: 3b96dfdcb10cd764cafada0fd002e17c,
        type: 3}
    - time: 0.3
      value: {fileID: -1431299335204379719, guid: 3b96dfdcb10cd764cafada0fd002e17c,
        type: 3}
    - time: 0.4
      value: {fileID: 7343055782830809334, guid: 3b96dfdcb10cd764cafada0fd002e17c,
        type: 3}
    attribute: m_Sprite
    path: Main Transform/Main Renderers/Renderer_0
    classID: 212
    script: {fileID: 0}
  m_SampleRate: 10
  m_WrapMode: 0
  m_Bounds:
    m_Center: {x: 0, y: 0, z: 0}
    m_Extent: {x: 0, y: 0, z: 0}
  m_ClipBindingConstant:
    genericBindings:
    - serializedVersion: 2
      path: 4282136726
      attribute: 0
      script: {fileID: 0}
      typeID: 212
      customType: 23
      isPPtrCurve: 1
    pptrCurveMapping:
    - {fileID: -442413852900612751, guid: 3b96dfdcb10cd764cafada0fd002e17c, type: 3}
    - {fileID: -4504724859831576421, guid: 3b96dfdcb10cd764cafada0fd002e17c, type: 3}
    - {fileID: -1647702058509390200, guid: 3b96dfdcb10cd764cafada0fd002e17c, type: 3}
    - {fileID: -1431299335204379719, guid: 3b96dfdcb10cd764cafada0fd002e17c, type: 3}
    - {fileID: 7343055782830809334, guid: 3b96dfdcb10cd764cafada0fd002e17c, type: 3}
  m_AnimationClipSettings:
    serializedVersion: 2
    m_AdditiveReferencePoseClip: {fileID: 0}
    m_AdditiveReferencePoseTime: 0
    m_StartTime: 0
    m_StopTime: 0.5
    m_OrientationOffsetY: 0
    m_Level: 0
    m_CycleOffset: 0
    m_HasAdditiveReferencePose: 0
    m_LoopTime: 0
    m_LoopBlend: 0
    m_LoopBlendOrientation: 0
    m_LoopBlendPositionY: 0
    m_LoopBlendPositionXZ: 0
    m_KeepOriginalOrientation: 0
    m_KeepOriginalPositionY: 1
    m_KeepOriginalPositionXZ: 0
    m_HeightFromFeet: 0
    m_Mirror: 0
  m_EditorCurves: []
  m_EulerEditorCurves: []
  m_HasGenericRootTransform: 0
  m_HasMotionFloatCurves: 0
  m_Events:
  - time: 0.5
    functionName: Deactivate_Animation
    data: 
    objectReferenceParameter: {fileID: 0}
    floatParameter: 0
    intParameter: 0
    messageOptions: 0
