%YAML 1.1
%TAG !u! tag:unity3d.com,2011:
--- !u!74 &7400000
AnimationClip:
  m_ObjectHideFlags: 0
  m_CorrespondingSourceObject: {fileID: 0}
  m_PrefabInstance: {fileID: 0}
  m_PrefabAsset: {fileID: 0}
  m_Name: Animation_ArrestedCitizen_Gulbate_Break
  serializedVersion: 6
  m_Legacy: 0
  m_Compressed: 0
  m_UseHighQualityCurve: 1
  m_RotationCurves: []
  m_CompressedRotationCurves: []
  m_EulerCurves: []
  m_PositionCurves: []
  m_ScaleCurves: []
  m_FloatCurves: []
  m_PPtrCurves:
  - curve:
    - time: 0
      value: {fileID: 3394441705444423337, guid: 8b923797af3709e4e84389714e476ca4,
        type: 3}
    - time: 0.1
      value: {fileID: 1250210204913978039, guid: 8b923797af3709e4e84389714e476ca4,
        type: 3}
    - time: 0.2
      value: {fileID: -3055965031265113063, guid: 8b923797af3709e4e84389714e476ca4,
        type: 3}
    - time: 0.3
      value: {fileID: -6684294445860517681, guid: 8b923797af3709e4e84389714e476ca4,
        type: 3}
    - time: 0.4
      value: {fileID: 1527172893604028007, guid: 8b923797af3709e4e84389714e476ca4,
        type: 3}
    - time: 0.5
      value: {fileID: -249009487786808522, guid: 8b923797af3709e4e84389714e476ca4,
        type: 3}
    - time: 0.6
      value: {fileID: -8084041626325146029, guid: 8b923797af3709e4e84389714e476ca4,
        type: 3}
    - time: 0.7
      value: {fileID: -2849296430457076944, guid: 8b923797af3709e4e84389714e476ca4,
        type: 3}
    - time: 0.8
      value: {fileID: 6172364433250388184, guid: 8b923797af3709e4e84389714e476ca4,
        type: 3}
    - time: 0.9
      value: {fileID: -9143501695422577928, guid: 8b923797af3709e4e84389714e476ca4,
        type: 3}
    - time: 1
      value: {fileID: 7613081278185861877, guid: 8b923797af3709e4e84389714e476ca4,
        type: 3}
    - time: 1.1
      value: {fileID: 1226752771258879519, guid: 8b923797af3709e4e84389714e476ca4,
        type: 3}
    attribute: m_Sprite
    path: Main Transform/Main Renderers/Main Renderer_0
    classID: 212
    script: {fileID: 0}
  m_SampleRate: 10
  m_WrapMode: 0
  m_Bounds:
    m_Center: {x: 0, y: 0, z: 0}
    m_Extent: {x: 0, y: 0, z: 0}
  m_ClipBindingConstant:
    genericBindings:
    - serializedVersion: 2
      path: 2075699959
      attribute: 0
      script: {fileID: 0}
      typeID: 212
      customType: 23
      isPPtrCurve: 1
    pptrCurveMapping:
    - {fileID: 3394441705444423337, guid: 8b923797af3709e4e84389714e476ca4, type: 3}
    - {fileID: 1250210204913978039, guid: 8b923797af3709e4e84389714e476ca4, type: 3}
    - {fileID: -3055965031265113063, guid: 8b923797af3709e4e84389714e476ca4, type: 3}
    - {fileID: -6684294445860517681, guid: 8b923797af3709e4e84389714e476ca4, type: 3}
    - {fileID: 1527172893604028007, guid: 8b923797af3709e4e84389714e476ca4, type: 3}
    - {fileID: -249009487786808522, guid: 8b923797af3709e4e84389714e476ca4, type: 3}
    - {fileID: -8084041626325146029, guid: 8b923797af3709e4e84389714e476ca4, type: 3}
    - {fileID: -2849296430457076944, guid: 8b923797af3709e4e84389714e476ca4, type: 3}
    - {fileID: 6172364433250388184, guid: 8b923797af3709e4e84389714e476ca4, type: 3}
    - {fileID: -9143501695422577928, guid: 8b923797af3709e4e84389714e476ca4, type: 3}
    - {fileID: 7613081278185861877, guid: 8b923797af3709e4e84389714e476ca4, type: 3}
    - {fileID: 1226752771258879519, guid: 8b923797af3709e4e84389714e476ca4, type: 3}
  m_AnimationClipSettings:
    serializedVersion: 2
    m_AdditiveReferencePoseClip: {fileID: 0}
    m_AdditiveReferencePoseTime: 0
    m_StartTime: 0
    m_StopTime: 1.2
    m_OrientationOffsetY: 0
    m_Level: 0
    m_CycleOffset: 0
    m_HasAdditiveReferencePose: 0
    m_LoopTime: 0
    m_LoopBlend: 0
    m_LoopBlendOrientation: 0
    m_LoopBlendPositionY: 0
    m_LoopBlendPositionXZ: 0
    m_KeepOriginalOrientation: 0
    m_KeepOriginalPositionY: 1
    m_KeepOriginalPositionXZ: 0
    m_HeightFromFeet: 0
    m_Mirror: 0
  m_EditorCurves: []
  m_EulerEditorCurves: []
  m_HasGenericRootTransform: 0
  m_HasMotionFloatCurves: 0
  m_Events:
  - time: 0.7
    functionName: OnStartFalling_Animation
    data: 
    objectReferenceParameter: {fileID: 0}
    floatParameter: 0
    intParameter: 0
    messageOptions: 0
  - time: 1.1
    functionName: PlayThankAudio_Animation
    data: 
    objectReferenceParameter: {fileID: 0}
    floatParameter: 0
    intParameter: 0
    messageOptions: 0
  - time: 1.2
    functionName: OnBreakEnd_Animation
    data: 
    objectReferenceParameter: {fileID: 0}
    floatParameter: 0
    intParameter: 0
    messageOptions: 0
