%YAML 1.1
%TAG !u! tag:unity3d.com,2011:
--- !u!1045 &1
EditorBuildSettings:
  m_ObjectHideFlags: 0
  serializedVersion: 2
  m_Scenes:
  - enabled: 1
    path: Assets/Scenes/Scenes_Outside/Scene_Intro.unity
    guid: 5ba9dda2b18468547a141ae2437121e2
  - enabled: 1
    path: Assets/Scenes/Scenes_Outside/Scene_Opening.unity
    guid: 9af0174fef9f04a42a68a418255591a2
  - enabled: 1
    path: Assets/Scenes/Scenes_Outside/Scene_Bridge.unity
    guid: a00b8bf57b133034db010cd7cbedbf19
  - enabled: 1
    path: Assets/Scenes/Scenes_Outside/Scene_GameOver.unity
    guid: 8f472126c71fc544190349a51082659b
  - enabled: 1
    path: Assets/Scenes/Scenes_Outside/Scene_GameClear.unity
    guid: 5a5e294f50057b14dbb28bb28ad45bb0
  - enabled: 1
    path: Assets/Scenes/Scenes_Outside/Scene_Loading.unity
    guid: f4fe7db11875c9b4fbe82dda6b4912ea
  - enabled: 1
    path: Assets/Scenes/Scenes_Outside/Scene_Title.unity
    guid: 8b1e064a78b397c41bb6e0800a9ecdfd
  - enabled: 1
    path: Assets/Scenes/Scenes_Inside/Scene_Sanctuary.unity
    guid: 4a37f5aa0b5f76f4ca66b31bdaef2ebf
  - enabled: 1
    path: Assets/Scenes/Scenes_Inside/Scene_Abyss_Tutorial.unity
    guid: 55fdb814ab049d54fb17d3db7ccb427d
  - enabled: 1
    path: Assets/Scenes/Scenes_Inside/Scene_Abyss_Midgard.unity
    guid: 472dea62038003b4b910f80973e1c4a9
  m_configObjects: {}
