%YAML 1.1
%TAG !u! tag:unity3d.com,2011:
--- !u!74 &7400000
AnimationClip:
  m_ObjectHideFlags: 0
  m_CorrespondingSourceObject: {fileID: 0}
  m_PrefabInstance: {fileID: 0}
  m_PrefabAsset: {fileID: 0}
  m_Name: Animation_ExplosiveFruit_BombFruit_Contract_1
  serializedVersion: 6
  m_Legacy: 0
  m_Compressed: 0
  m_UseHighQualityCurve: 1
  m_RotationCurves: []
  m_CompressedRotationCurves: []
  m_EulerCurves: []
  m_PositionCurves: []
  m_ScaleCurves: []
  m_FloatCurves: []
  m_PPtrCurves:
  - curve:
    - time: 0
      value: {fileID: 8619664063644860850, guid: ae9b08f68be55164e984c8ffe1ec45b3,
        type: 3}
    - time: 0.1
      value: {fileID: -7861939272616668763, guid: ae9b08f68be55164e984c8ffe1ec45b3,
        type: 3}
    - time: 0.2
      value: {fileID: -1797123839620119923, guid: ae9b08f68be55164e984c8ffe1ec45b3,
        type: 3}
    - time: 0.3
      value: {fileID: 3884700593026034641, guid: ae9b08f68be55164e984c8ffe1ec45b3,
        type: 3}
    - time: 0.4
      value: {fileID: -6186038842779505304, guid: ae9b08f68be55164e984c8ffe1ec45b3,
        type: 3}
    - time: 0.5
      value: {fileID: -1363917725994669490, guid: ae9b08f68be55164e984c8ffe1ec45b3,
        type: 3}
    - time: 0.6
      value: {fileID: 3653003208614640710, guid: ae9b08f68be55164e984c8ffe1ec45b3,
        type: 3}
    - time: 0.7
      value: {fileID: 742393878806887975, guid: ae9b08f68be55164e984c8ffe1ec45b3,
        type: 3}
    - time: 0.8
      value: {fileID: 1437820841527248090, guid: ae9b08f68be55164e984c8ffe1ec45b3,
        type: 3}
    - time: 0.9
      value: {fileID: 884364655139208374, guid: ae9b08f68be55164e984c8ffe1ec45b3,
        type: 3}
    - time: 1
      value: {fileID: -7928125416014406063, guid: ae9b08f68be55164e984c8ffe1ec45b3,
        type: 3}
    - time: 1.1
      value: {fileID: -1387946280523612528, guid: ae9b08f68be55164e984c8ffe1ec45b3,
        type: 3}
    attribute: m_Sprite
    path: Main Transform/Main Renderers/Main Renderer_0
    classID: 212
    script: {fileID: 0}
  m_SampleRate: 10
  m_WrapMode: 0
  m_Bounds:
    m_Center: {x: 0, y: 0, z: 0}
    m_Extent: {x: 0, y: 0, z: 0}
  m_ClipBindingConstant:
    genericBindings:
    - serializedVersion: 2
      path: 2075699959
      attribute: 0
      script: {fileID: 0}
      typeID: 212
      customType: 23
      isPPtrCurve: 1
    pptrCurveMapping:
    - {fileID: 8619664063644860850, guid: ae9b08f68be55164e984c8ffe1ec45b3, type: 3}
    - {fileID: -7861939272616668763, guid: ae9b08f68be55164e984c8ffe1ec45b3, type: 3}
    - {fileID: -1797123839620119923, guid: ae9b08f68be55164e984c8ffe1ec45b3, type: 3}
    - {fileID: 3884700593026034641, guid: ae9b08f68be55164e984c8ffe1ec45b3, type: 3}
    - {fileID: -6186038842779505304, guid: ae9b08f68be55164e984c8ffe1ec45b3, type: 3}
    - {fileID: -1363917725994669490, guid: ae9b08f68be55164e984c8ffe1ec45b3, type: 3}
    - {fileID: 3653003208614640710, guid: ae9b08f68be55164e984c8ffe1ec45b3, type: 3}
    - {fileID: 742393878806887975, guid: ae9b08f68be55164e984c8ffe1ec45b3, type: 3}
    - {fileID: 1437820841527248090, guid: ae9b08f68be55164e984c8ffe1ec45b3, type: 3}
    - {fileID: 884364655139208374, guid: ae9b08f68be55164e984c8ffe1ec45b3, type: 3}
    - {fileID: -7928125416014406063, guid: ae9b08f68be55164e984c8ffe1ec45b3, type: 3}
    - {fileID: -1387946280523612528, guid: ae9b08f68be55164e984c8ffe1ec45b3, type: 3}
  m_AnimationClipSettings:
    serializedVersion: 2
    m_AdditiveReferencePoseClip: {fileID: 0}
    m_AdditiveReferencePoseTime: 0
    m_StartTime: 0
    m_StopTime: 1.2
    m_OrientationOffsetY: 0
    m_Level: 0
    m_CycleOffset: 0
    m_HasAdditiveReferencePose: 0
    m_LoopTime: 0
    m_LoopBlend: 0
    m_LoopBlendOrientation: 0
    m_LoopBlendPositionY: 0
    m_LoopBlendPositionXZ: 0
    m_KeepOriginalOrientation: 0
    m_KeepOriginalPositionY: 1
    m_KeepOriginalPositionXZ: 0
    m_HeightFromFeet: 0
    m_Mirror: 0
  m_EditorCurves: []
  m_EulerEditorCurves: []
  m_HasGenericRootTransform: 0
  m_HasMotionFloatCurves: 0
  m_Events:
  - time: 1.2
    functionName: Activate_Animation
    data: 
    objectReferenceParameter: {fileID: 0}
    floatParameter: 0
    intParameter: 0
    messageOptions: 0
