%YAML 1.1
%TAG !u! tag:unity3d.com,2011:
--- !u!21 &2100000
Material:
  serializedVersion: 6
  m_ObjectHideFlags: 0
  m_CorrespondingSourceObject: {fileID: 0}
  m_PrefabInstance: {fileID: 0}
  m_PrefabAsset: {fileID: 0}
  m_Name: Custom_SpriteShadow
  m_Shader: {fileID: 4800000, guid: 5c709e49c4b64744884bcb7bc39e9494, type: 3}
  m_ShaderKeywords: ETC1_EXTERNAL_ALPHA _ISACTIVEOUTLINE_ON _ISACTIVE_ON
  m_LightmapFlags: 4
  m_EnableInstancingVariants: 0
  m_DoubleSidedGI: 0
  m_CustomRenderQueue: -1
  stringTagMap: {}
  disabledShaderPasses: []
  m_SavedProperties:
    serializedVersion: 3
    m_TexEnvs:
    - _MainTex:
        m_Texture: {fileID: 0}
        m_Scale: {x: 1, y: 1}
        m_Offset: {x: 0, y: 0}
    m_Floats:
    - _IsActiveOutline: 1
    - _isActive: 1
    m_Colors:
    - _OutlineColor: {r: 0.5943396, g: 0.49832883, b: 0.33922213, a: 1}
