%YAML 1.1
%TAG !u! tag:unity3d.com,2011:
--- !u!114 &11400000
MonoBehaviour:
  m_ObjectHideFlags: 0
  m_CorrespondingSourceObject: {fileID: 0}
  m_PrefabInstance: {fileID: 0}
  m_PrefabAsset: {fileID: 0}
  m_GameObject: {fileID: 0}
  m_Enabled: 1
  m_EditorHideFlags: 0
  m_Script: {fileID: 11500000, guid: 403b87d9b2b60b7409529f5f219bc839, type: 3}
  m_Name: Asset_Status_Player
  m_EditorClassIdentifier: 
  mInventory: {fileID: 11400000, guid: 0a1be28cb5d473e46b8e726ca1641cf0, type: 2}
  mMaxPromotion: 12
  mStatusCoefficients:
  - 0.1
  - 0.1
  - 0.2
  - 0.2
  mStatusConstants:
  - 0.05
