%YAML 1.1
%TAG !u! tag:unity3d.com,2011:
--- !u!221 &22100000
AnimatorOverrideController:
  m_ObjectHideFlags: 0
  m_CorrespondingSourceObject: {fileID: 0}
  m_PrefabInstance: {fileID: 0}
  m_PrefabAsset: {fileID: 0}
  m_Name: AnimatorOverride_Effect_BlessedFairy
  m_Controller: {fileID: 9100000, guid: d0cce44e729339d4f8adbe5e77314aa6, type: 2}
  m_Clips:
  - m_OriginalClip: {fileID: 7400000, guid: ddcd43606989a88479286b059c47a2c0, type: 2}
    m_OverrideClip: {fileID: 7400000, guid: 7dcc4d39c3e5fe947b1783e8e24a4226, type: 2}
  - m_OriginalClip: {fileID: 7400000, guid: 722ebc1184274fc4f8f9a23c1693cc45, type: 2}
    m_OverrideClip: {fileID: 7400000, guid: 4ae4a93196f01d64ba29fa3e480734e8, type: 2}
