%YAML 1.1
%TAG !u! tag:unity3d.com,2011:
--- !u!221 &22100000
AnimatorOverrideController:
  m_ObjectHideFlags: 0
  m_CorrespondingSourceObject: {fileID: 0}
  m_PrefabInstance: {fileID: 0}
  m_PrefabAsset: {fileID: 0}
  m_Name: AnimatorOverride_ActiveSkill_Evade
  m_Controller: {fileID: 9100000, guid: 8bed58de284190c4d95fef9bba47b35d, type: 2}
  m_Clips:
  - m_OriginalClip: {fileID: 7400000, guid: ddb29723217888c4d8cf86655e311c24, type: 2}
    m_OverrideClip: {fileID: 7400000, guid: 15e4263a245595547b677402d2d8159d, type: 2}
  - m_OriginalClip: {fileID: 7400000, guid: 6d14e7c626d05f84ca712dfddda2d854, type: 2}
    m_OverrideClip: {fileID: 7400000, guid: 75b6838e9fb16b941be21656a04ce5a1, type: 2}
  - m_OriginalClip: {fileID: 7400000, guid: d3346abb367db7f44b51a1c87d566e11, type: 2}
    m_OverrideClip: {fileID: 7400000, guid: 51213c4852264264790049b1a9a5c10d, type: 2}
