%YAML 1.1
%TAG !u! tag:unity3d.com,2011:
--- !u!221 &22100000
AnimatorOverrideController:
  m_ObjectHideFlags: 0
  m_CorrespondingSourceObject: {fileID: 0}
  m_PrefabInstance: {fileID: 0}
  m_PrefabAsset: {fileID: 0}
  m_Name: AnimatorOverride_ActiveSkill_Defense
  m_Controller: {fileID: 9100000, guid: a5ae96758fd8fb343a0be6e3ce4edb31, type: 2}
  m_Clips:
  - m_OriginalClip: {fileID: 7400000, guid: 6186a241e81bd4b448833a613486de4b, type: 2}
    m_OverrideClip: {fileID: 7400000, guid: c1595bf4a06a0b146ad8e3f0d710b445, type: 2}
  - m_OriginalClip: {fileID: 7400000, guid: 6da9de799c15c7044932e504fefd1f54, type: 2}
    m_OverrideClip: {fileID: 7400000, guid: e4a07344984b702449c4c01f18a1c2fb, type: 2}
  - m_OriginalClip: {fileID: 7400000, guid: 1b027aaa7f159464aae5cf06f6253720, type: 2}
    m_OverrideClip: {fileID: 7400000, guid: 7bb366c2b7dd1084ba2c8c01a822a211, type: 2}
